Explorando el Caso Banco Portugues - Bank Marketing
…
data_banco %$% str(day_of_week)

##  Ord.factor w/ 5 levels "Lun"<"Mar"<"Mie"<..: 1 1 1 1 1 1 1 1 1 1 ...

EDA Anlisis Exploratorio de Datos

Una de las primeras cosas que se debe realizar es ver cuntos datos nicos tiene cada variable, esto debido a que una vairable que tenga siempre el mismo valor no aporta en el estudio.

data_banco %>% 
  map_df(.f =  function(x) length(unique(x))) %>%  # Contar valores nicos por variable
  gather(value = "NumValoresUnicos", key = "Variable") %>%  # pasar de horizontal a vertical
  arrange(NumValoresUnicos)

## # A tibble: 21 x 2
##    Variable    NumValoresUnicos
##    <chr>                  <int>
##  1 contact                    2
##  2 y                          2
##  3 default                    3
##  4 housing                    3
##  5 loan                       3
##  6 poutcome                   3
##  7 marital                    4
##  8 day_of_week                5
##  9 education                  8
## 10 previous                   8
## # ... with 11 more rows
…
